{"has_next":true,"number":1,"results":[{"id":14396155,"entry_name":"Luke know nuffink","event_total":71,"player_name":"Tony Coppen","movement":"up","own_entry":false,"rank":1,"last_rank":2,"rank_sort":1,"total":309,"entry":2621075,"league":313,"start_event":1,"stop_event":38},{"id":20620253,"entry_name":"yibbida-yibbida","event_total":102,"player_name":"Garret Schembri","movement":"up","own_entry":false,"rank":2,"last_rank":5442,"rank_sort":2,"total":299,"entry":3590375,"league":313,"start_event":1,"stop_event":38},{"id":13148025,"entry_name":"Roxrite_89","event_total":96,"player_name":"FC Roxrite","movement":"up","own_entry":false,"rank":3,"last_rank":5442,"rank_sort":3,"total":293,"entry":2415205,"league":313,"start_event":1,"stop_event":38},{"id":14474052,"entry_name":"CF Robinson Machado","event_total":45,"player_name":"Henrik Tveiteras","movement":"down","own_entry":false,"rank":3,"last_rank":1,"rank_sort":4,"total":293,"entry":2633702,"league":313,"start_event":1,"stop_event":38},{"id":14905461,"entry_name":"Niall Might Do It","event_total":69,"player_name":"Niall Danaher","movement":"up","own_entry":false,"rank":3,"last_rank":22,"rank_sort":5,"total":293,"entry":2702629,"league":313,"start_event":1,"stop_event":38},{"id":2820781,"entry_name":"Harry’s Golden Boot","event_total":63,"player_name":"Dan Medlycott","movement":"up","own_entry":false,"rank":6,"last_rank":9,"rank_sort":6,"total":292,"entry":582028,"league":313,"start_event":1,"stop_event":38},{"id":3131660,"entry_name":"Alonso","event_total":77,"player_name":"salem alonso","movement":"up","own_entry":false,"rank":7,"last_rank":198,"rank_sort":7,"total":291,"entry":642529,"league":313,"start_event":1,"stop_event":38},{"id":238514,"entry_name":"R.U.P.E.","event_total":65,"player_name":"Dario Đumić","movement":"up","own_entry":false,"rank":8,"last_rank":26,"rank_sort":8,"total":289,"entry":50908,"league":313,"start_event":1,"stop_event":38},{"id":17687563,"entry_name":"Mancunian Devils","event_total":54,"player_name":"Daniel Fernando","movement":"down","own_entry":false,"rank":9,"last_rank":3,"rank_sort":9,"total":289,"entry":3144802,"league":313,"start_event":1,"stop_event":38},{"id":13972348,"entry_name":"高普朋友隊","event_total":64,"player_name":"Kam Yin Cheung Issac","movement":"up","own_entry":false,"rank":10,"last_rank":26,"rank_sort":10,"total":288,"entry":2554389,"league":313,"start_event":1,"stop_event":38},{"id":20127150,"entry_name":"Kebhali lou","event_total":79,"player_name":"Sidi mohmed Kebd","movement":"up","own_entry":false,"rank":10,"last_rank":542,"rank_sort":11,"total":288,"entry":3517112,"league":313,"start_event":1,"stop_event":38},{"id":56170,"entry_name":"Legends team 96","event_total":70,"player_name":"Mohamed Atta","movement":"up","own_entry":false,"rank":12,"last_rank":78,"rank_sort":12,"total":288,"entry":12137,"league":313,"start_event":1,"stop_event":38},{"id":20790944,"entry_name":"AT239401","event_total":81,"player_name":"Reece Pope","movement":"up","own_entry":false,"rank":12,"last_rank":750,"rank_sort":13,"total":288,"entry":3616421,"league":313,"start_event":1,"stop_event":38},{"id":3931224,"entry_name":"WUUUUUUH!","event_total":64,"player_name":"Cai Evans","movement":"up","own_entry":false,"rank":14,"last_rank":32,"rank_sort":14,"total":287,"entry":791003,"league":313,"start_event":1,"stop_event":38},{"id":15826075,"entry_name":"Alvheim FC","event_total":55,"player_name":"Adrian Alvheim","movement":"down","own_entry":false,"rank":15,"last_rank":4,"rank_sort":15,"total":286,"entry":2852523,"league":313,"start_event":1,"stop_event":38},{"id":16704493,"entry_name":"Oddi","event_total":61,"player_name":"Odd Ivar Haddeland","movement":"same","own_entry":false,"rank":16,"last_rank":16,"rank_sort":16,"total":286,"entry":2992849,"league":313,"start_event":1,"stop_event":38},{"id":14105046,"entry_name":"LTU","event_total":63,"player_name":"Toni Haapanen","movement":"up","own_entry":false,"rank":17,"last_rank":32,"rank_sort":17,"total":286,"entry":2575352,"league":313,"start_event":1,"stop_event":38},{"id":19147232,"entry_name":"m saad","event_total":71,"player_name":"Mohammed Saad","movement":"up","own_entry":false,"rank":18,"last_rank":217,"rank_sort":18,"total":285,"entry":3369418,"league":313,"start_event":1,"stop_event":38},{"id":10046511,"entry_name":"Ahmed","event_total":64,"player_name":"Ahmed Magdy","movement":"up","own_entry":false,"rank":19,"last_rank":45,"rank_sort":19,"total":285,"entry":1889352,"league":313,"start_event":1,"stop_event":38},{"id":11967914,"entry_name":"Caïds","event_total":70,"player_name":"Dàly Ghàrbi","movement":"up","own_entry":false,"rank":19,"last_rank":183,"rank_sort":20,"total":285,"entry":2217312,"league":313,"start_event":1,"stop_event":38},{"id":14352975,"entry_name":"Van The Man","event_total":75,"player_name":"Chris Vanstone","movement":"up","own_entry":false,"rank":21,"last_rank":484,"rank_sort":21,"total":284,"entry":2614408,"league":313,"start_event":1,"stop_event":38},{"id":23161594,"entry_name":"PdawgFC","event_total":67,"player_name":"pria mohan","movement":"up","own_entry":false,"rank":22,"last_rank":100,"rank_sort":22,"total":284,"entry":3980726,"league":313,"start_event":1,"stop_event":38},{"id":23809122,"entry_name":"BANGLADESh","event_total":75,"player_name":"Nahid Mehedi Biswas","movement":"up","own_entry":false,"rank":23,"last_rank":596,"rank_sort":23,"total":283,"entry":4075100,"league":313,"start_event":1,"stop_event":38},{"id":18779221,"entry_name":"Tinchy Sneijder","event_total":62,"player_name":"Kiyan Maleki","movement":"down","own_entry":false,"rank":24,"last_rank":19,"rank_sort":24,"total":283,"entry":3313612,"league":313,"start_event":1,"stop_event":38},{"id":25397205,"entry_name":"mex ting","event_total":59,"player_name":"Atli Már Eyjólfsson","movement":"up","own_entry":false,"rank":25,"last_rank":30,"rank_sort":25,"total":282,"entry":4298923,"league":313,"start_event":1,"stop_event":38},{"id":16717732,"entry_name":"Vikings","event_total":68,"player_name":"Omar Alaa","movement":"up","own_entry":false,"rank":26,"last_rank":217,"rank_sort":26,"total":282,"entry":2995004,"league":313,"start_event":1,"stop_event":38},{"id":22401893,"entry_name":"lazaar","event_total":65,"player_name":"Lazaar Amine","movement":"up","own_entry":false,"rank":27,"last_rank":109,"rank_sort":27,"total":282,"entry":3869553,"league":313,"start_event":1,"stop_event":38},{"id":1729790,"entry_name":"Loser11","event_total":74,"player_name":"Jahidul ABD Riyad","movement":"up","own_entry":false,"rank":28,"last_rank":872,"rank_sort":28,"total":281,"entry":357142,"league":313,"start_event":1,"stop_event":38},{"id":9589500,"entry_name":"Jumbosausages","event_total":56,"player_name":"Nick Howard","movement":"down","own_entry":false,"rank":28,"last_rank":8,"rank_sort":29,"total":281,"entry":1813759,"league":313,"start_event":1,"stop_event":38},{"id":16904255,"entry_name":"Wander1ngM1nd","event_total":91,"player_name":"Rod Turner","movement":"up","own_entry":false,"rank":28,"last_rank":15163,"rank_sort":30,"total":281,"entry":3026048,"league":313,"start_event":1,"stop_event":38},{"id":6678773,"entry_name":"Jonah's Dream","event_total":75,"player_name":"Jody Shelley","movement":"up","own_entry":false,"rank":31,"last_rank":1135,"rank_sort":31,"total":280,"entry":1298148,"league":313,"start_event":1,"stop_event":38},{"id":6961373,"entry_name":"El Professor","event_total":71,"player_name":"Sherif Karam","movement":"up","own_entry":false,"rank":31,"last_rank":484,"rank_sort":32,"total":280,"entry":1351775,"league":313,"start_event":1,"stop_event":38},{"id":20002935,"entry_name":"Pablo's hippos","event_total":72,"player_name":"Philip Furlong","movement":"up","own_entry":false,"rank":33,"last_rank":596,"rank_sort":33,"total":280,"entry":3497829,"league":313,"start_event":1,"stop_event":38},{"id":2409865,"entry_name":"TC FC","event_total":71,"player_name":"Tom C","movement":"up","own_entry":false,"rank":34,"last_rank":596,"rank_sort":34,"total":279,"entry":500194,"league":313,"start_event":1,"stop_event":38},{"id":6072720,"entry_name":"teampospa","event_total":71,"player_name":"Ondrej Pospisil","movement":"up","own_entry":false,"rank":34,"last_rank":596,"rank_sort":35,"total":279,"entry":1186572,"league":313,"start_event":1,"stop_event":38},{"id":6650723,"entry_name":"The Top Dawgs","event_total":57,"player_name":"stephen mallon","movement":"down","own_entry":false,"rank":36,"last_rank":35,"rank_sort":36,"total":279,"entry":1292884,"league":313,"start_event":1,"stop_event":38},{"id":12288402,"entry_name":"ChelseaFromEngland","event_total":80,"player_name":"Maimiti Garavagno","movement":"up","own_entry":false,"rank":36,"last_rank":4015,"rank_sort":37,"total":279,"entry":2272216,"league":313,"start_event":1,"stop_event":38},{"id":19761874,"entry_name":"四季我請晒","event_total":71,"player_name":"Him Lam","movement":"up","own_entry":false,"rank":36,"last_rank":596,"rank_sort":38,"total":279,"entry":3460472,"league":313,"start_event":1,"stop_event":38},{"id":19769944,"entry_name":"DanBenScott","event_total":78,"player_name":"Paul Taylor","movement":"up","own_entry":false,"rank":36,"last_rank":2408,"rank_sort":39,"total":279,"entry":3461699,"league":313,"start_event":1,"stop_event":38},{"id":19895256,"entry_name":"Marrakesh Zoots","event_total":60,"player_name":"alexandre ruimy","movement":"up","own_entry":false,"rank":36,"last_rank":65,"rank_sort":40,"total":279,"entry":3480965,"league":313,"start_event":1,"stop_event":38},{"id":21275802,"entry_name":"Jangkrik","event_total":72,"player_name":"Hudiya Rahman","movement":"up","own_entry":false,"rank":36,"last_rank":331,"rank_sort":41,"total":279,"entry":3692056,"league":313,"start_event":1,"stop_event":38},{"id":22071770,"entry_name":"Chichibio e la gru","event_total":64,"player_name":"Alessandro Massari","movement":"up","own_entry":false,"rank":36,"last_rank":183,"rank_sort":42,"total":279,"entry":3818718,"league":313,"start_event":1,"stop_event":38},{"id":2179113,"entry_name":"Channel 4 news team","event_total":54,"player_name":"Michael Byrne","movement":"down","own_entry":false,"rank":43,"last_rank":9,"rank_sort":43,"total":279,"entry":452267,"league":313,"start_event":1,"stop_event":38},{"id":508707,"entry_name":"Sonbovich","event_total":69,"player_name":"mohamad Syafiq Lukman","movement":"up","own_entry":false,"rank":44,"last_rank":484,"rank_sort":44,"total":278,"entry":107113,"league":313,"start_event":1,"stop_event":38},{"id":2238444,"entry_name":"Hanging by a Fred","event_total":53,"player_name":"jimmy eck","movement":"down","own_entry":false,"rank":44,"last_rank":16,"rank_sort":45,"total":278,"entry":464568,"league":313,"start_event":1,"stop_event":38},{"id":26040524,"entry_name":"Lalande F.C","event_total":57,"player_name":"Francisco Santos","movement":"down","own_entry":false,"rank":44,"last_rank":39,"rank_sort":46,"total":278,"entry":4398604,"league":313,"start_event":1,"stop_event":38},{"id":16474122,"entry_name":"Kanu+Benjani","event_total":54,"player_name":"Andrew Reid","movement":"down","own_entry":false,"rank":47,"last_rank":29,"rank_sort":47,"total":278,"entry":2954515,"league":313,"start_event":1,"stop_event":38},{"id":12860904,"entry_name":"BigNyyy","event_total":69,"player_name":"Nyal Bell","movement":"up","own_entry":false,"rank":48,"last_rank":596,"rank_sort":48,"total":277,"entry":2367559,"league":313,"start_event":1,"stop_event":38},{"id":2398014,"entry_name":"Sons","event_total":62,"player_name":"Hussein fawzy","movement":"up","own_entry":false,"rank":49,"last_rank":157,"rank_sort":49,"total":277,"entry":497803,"league":313,"start_event":1,"stop_event":38},{"id":14963027,"entry_name":"HimbyTeam","event_total":68,"player_name":"Martin Himberg","movement":"up","own_entry":false,"rank":49,"last_rank":542,"rank_sort":50,"total":277,"entry":2712245,"league":313,"start_event":1,"stop_event":38}]}
