{"has_next":true,"number":1,"results":[{"id":484275,"entry_name":"Yusuf's Team","event_total":93,"player_name":"Yusuf Sheikh","movement":"up","own_entry":false,"rank":1,"last_rank":6,"rank_sort":1,"total":2512,"entry":101046,"league":313,"start_event":1,"stop_event":38},{"id":2260000,"entry_name":"My Little Kone","event_total":72,"player_name":"Paul Gee","movement":"up","own_entry":false,"rank":2,"last_rank":4,"rank_sort":2,"total":2504,"entry":453751,"league":313,"start_event":1,"stop_event":38},{"id":4511166,"entry_name":"Boom Xhaka Laca","event_total":52,"player_name":"Bharat Dhody","movement":"down","own_entry":false,"rank":3,"last_rank":1,"rank_sort":3,"total":2500,"entry":870749,"league":313,"start_event":1,"stop_event":38},{"id":9856992,"entry_name":"da bestest","event_total":59,"player_name":"Henri Äär","movement":"down","own_entry":false,"rank":4,"last_rank":3,"rank_sort":4,"total":2497,"entry":1828710,"league":313,"start_event":1,"stop_event":38},{"id":136003,"entry_name":"Starlet","event_total":56,"player_name":"Faisal Idris","movement":"down","own_entry":false,"rank":5,"last_rank":2,"rank_sort":5,"total":2497,"entry":28492,"league":313,"start_event":1,"stop_event":38},{"id":9520592,"entry_name":"eso","event_total":78,"player_name":"esmaeel alsagheer","movement":"up","own_entry":false,"rank":6,"last_rank":12,"rank_sort":6,"total":2491,"entry":1771990,"league":313,"start_event":1,"stop_event":38},{"id":11357517,"entry_name":"FC MARADONA","event_total":77,"player_name":"Nebojsa Veljkovic","movement":"up","own_entry":false,"rank":7,"last_rank":11,"rank_sort":7,"total":2490,"entry":2085206,"league":313,"start_event":1,"stop_event":38},{"id":24143010,"entry_name":"Unlackee","event_total":77,"player_name":"Solms Dykman","movement":"up","own_entry":false,"rank":8,"last_rank":13,"rank_sort":8,"total":2488,"entry":3792333,"league":313,"start_event":1,"stop_event":38},{"id":210380,"entry_name":"Грга Питић","event_total":91,"player_name":"Nemanja Bekric","movement":"up","own_entry":false,"rank":9,"last_rank":24,"rank_sort":9,"total":2480,"entry":44408,"league":313,"start_event":1,"stop_event":38},{"id":361954,"entry_name":"Paggas Boys","event_total":57,"player_name":"kosta pagonis","movement":"down","own_entry":false,"rank":10,"last_rank":5,"rank_sort":10,"total":2478,"entry":76594,"league":313,"start_event":1,"stop_event":38},{"id":9303034,"entry_name":"4 Fuchs Ake","event_total":113,"player_name":"Christopher Cawood","movement":"up","own_entry":false,"rank":11,"last_rank":132,"rank_sort":11,"total":2474,"entry":1732983,"league":313,"start_event":1,"stop_event":38},{"id":1000251,"entry_name":"Ørretholmen Notlag","event_total":96,"player_name":"Håkon Skog Waaler","movement":"up","own_entry":false,"rank":12,"last_rank":66,"rank_sort":12,"total":2474,"entry":206837,"league":313,"start_event":1,"stop_event":38},{"id":12983201,"entry_name":"jedandvatri","event_total":102,"player_name":"Uros Ninkovic","movement":"up","own_entry":false,"rank":13,"last_rank":89,"rank_sort":13,"total":2474,"entry":2360645,"league":313,"start_event":1,"stop_event":38},{"id":12124119,"entry_name":"Don Dam","event_total":54,"player_name":"Morten Dam Vestergaard","movement":"down","own_entry":false,"rank":14,"last_rank":7,"rank_sort":14,"total":2472,"entry":2220418,"league":313,"start_event":1,"stop_event":38},{"id":6930074,"entry_name":"Ayew Serious","event_total":90,"player_name":"Balu Nirmal","movement":"up","own_entry":false,"rank":15,"last_rank":57,"rank_sort":15,"total":2472,"entry":1314636,"league":313,"start_event":1,"stop_event":38},{"id":134445,"entry_name":"Kuninkaan Pojat","event_total":83,"player_name":"Kuningas Himself","movement":"up","own_entry":false,"rank":16,"last_rank":38,"rank_sort":16,"total":2471,"entry":28195,"league":313,"start_event":1,"stop_event":38},{"id":1155098,"entry_name":"Crazy coutinho","event_total":72,"player_name":"Prakhar Patel","movement":"same","own_entry":false,"rank":17,"last_rank":17,"rank_sort":17,"total":2471,"entry":237524,"league":313,"start_event":1,"stop_event":38},{"id":3142,"entry_name":"Luke Kylewalkers Dad","event_total":54,"player_name":"rizwan chaudhry","movement":"down","own_entry":false,"rank":18,"last_rank":8,"rank_sort":18,"total":2471,"entry":790,"league":313,"start_event":1,"stop_event":38},{"id":541828,"entry_name":"FPL Glory","event_total":87,"player_name":"Mohammad Ebnul Karim Khan","movement":"up","own_entry":false,"rank":18,"last_rank":39,"rank_sort":19,"total":2471,"entry":113131,"league":313,"start_event":1,"stop_event":38},{"id":3542027,"entry_name":"Top Of Jimmer Booty","event_total":94,"player_name":"Ashley White","movement":"up","own_entry":false,"rank":20,"last_rank":83,"rank_sort":20,"total":2468,"entry":696164,"league":313,"start_event":1,"stop_event":38},{"id":10597092,"entry_name":"smartypants","event_total":93,"player_name":"Jonathan Lee","movement":"up","own_entry":false,"rank":21,"last_rank":82,"rank_sort":21,"total":2467,"entry":1951854,"league":313,"start_event":1,"stop_event":38},{"id":4975133,"entry_name":"Zehrs 9","event_total":95,"player_name":"Ahmed Zahran","movement":"up","own_entry":false,"rank":22,"last_rank":73,"rank_sort":22,"total":2467,"entry":958803,"league":313,"start_event":1,"stop_event":38},{"id":18665308,"entry_name":"Royals","event_total":73,"player_name":"hussein adel","movement":"same","own_entry":false,"rank":23,"last_rank":23,"rank_sort":23,"total":2467,"entry":3274130,"league":313,"start_event":1,"stop_event":38},{"id":15791713,"entry_name":"Powerpuff Girls","event_total":85,"player_name":"Lejuan Basson","movement":"up","own_entry":false,"rank":24,"last_rank":36,"rank_sort":24,"total":2466,"entry":2817369,"league":313,"start_event":1,"stop_event":38},{"id":9817508,"entry_name":"Will S","event_total":68,"player_name":"Wil Liam","movement":"down","own_entry":false,"rank":25,"last_rank":21,"rank_sort":25,"total":2466,"entry":1822504,"league":313,"start_event":1,"stop_event":38},{"id":5085534,"entry_name":"Gullholm FC","event_total":86,"player_name":"Jon Arne Gullholm","movement":"up","own_entry":false,"rank":26,"last_rank":61,"rank_sort":26,"total":2466,"entry":979331,"league":313,"start_event":1,"stop_event":38},{"id":4250945,"entry_name":"Cotton Rangers","event_total":50,"player_name":"Lassi Rikkonen","movement":"down","own_entry":false,"rank":27,"last_rank":9,"rank_sort":27,"total":2465,"entry":824430,"league":313,"start_event":1,"stop_event":38},{"id":12466768,"entry_name":"Sunyata","event_total":53,"player_name":"Ka Vee Yong","movement":"down","own_entry":false,"rank":28,"last_rank":10,"rank_sort":28,"total":2463,"entry":2275971,"league":313,"start_event":1,"stop_event":38},{"id":14516117,"entry_name":"Random-132","event_total":72,"player_name":"Jacob Graham","movement":"up","own_entry":false,"rank":29,"last_rank":35,"rank_sort":29,"total":2462,"entry":2612712,"league":313,"start_event":1,"stop_event":38},{"id":2318340,"entry_name":"Stalwart FC","event_total":91,"player_name":"Shirin Nizar","movement":"up","own_entry":false,"rank":30,"last_rank":80,"rank_sort":30,"total":2462,"entry":465167,"league":313,"start_event":1,"stop_event":38},{"id":5121767,"entry_name":"YNWA","event_total":76,"player_name":"John Brown","movement":"up","own_entry":false,"rank":31,"last_rank":46,"rank_sort":31,"total":2461,"entry":986158,"league":313,"start_event":1,"stop_event":38},{"id":17629076,"entry_name":"Inchihardcores","event_total":58,"player_name":"Joe Boyhan","movement":"down","own_entry":false,"rank":32,"last_rank":14,"rank_sort":32,"total":2461,"entry":3107718,"league":313,"start_event":1,"stop_event":38},{"id":17770700,"entry_name":"Treblemakers","event_total":89,"player_name":"Kristian Kvamsøe","movement":"up","own_entry":false,"rank":32,"last_rank":89,"rank_sort":33,"total":2461,"entry":3130437,"league":313,"start_event":1,"stop_event":38},{"id":1567432,"entry_name":"Team Name","event_total":83,"player_name":"Jamal Rice","movement":"up","own_entry":false,"rank":34,"last_rank":45,"rank_sort":34,"total":2461,"entry":320240,"league":313,"start_event":1,"stop_event":38},{"id":40,"entry_name":"Seven Kings","event_total":74,"player_name":"Erik Holm","movement":"up","own_entry":false,"rank":35,"last_rank":43,"rank_sort":35,"total":2460,"entry":12,"league":313,"start_event":1,"stop_event":38},{"id":1045225,"entry_name":"Renegades","event_total":82,"player_name":"Rahul Sreekumar","movement":"up","own_entry":false,"rank":36,"last_rank":59,"rank_sort":36,"total":2460,"entry":215773,"league":313,"start_event":1,"stop_event":38},{"id":6020856,"entry_name":"FCBfan","event_total":57,"player_name":"Michael M","movement":"down","own_entry":false,"rank":36,"last_rank":18,"rank_sort":37,"total":2460,"entry":1150475,"league":313,"start_event":1,"stop_event":38},{"id":1506967,"entry_name":"Basse FC","event_total":92,"player_name":"Basse Härlin","movement":"up","own_entry":false,"rank":38,"last_rank":111,"rank_sort":38,"total":2459,"entry":308149,"league":313,"start_event":1,"stop_event":38},{"id":143328,"entry_name":"Repeal Madrid","event_total":57,"player_name":"Kevin Fahy","movement":"down","own_entry":false,"rank":39,"last_rank":19,"rank_sort":39,"total":2459,"entry":30054,"league":313,"start_event":1,"stop_event":38},{"id":2436446,"entry_name":"Salah Dodger","event_total":69,"player_name":"Chris Newey","movement":"down","own_entry":false,"rank":40,"last_rank":22,"rank_sort":40,"total":2459,"entry":488167,"league":313,"start_event":1,"stop_event":38},{"id":1058040,"entry_name":"Courtois Pajama","event_total":86,"player_name":"Pranav Chadha","movement":"up","own_entry":false,"rank":41,"last_rank":92,"rank_sort":41,"total":2458,"entry":218305,"league":313,"start_event":1,"stop_event":38},{"id":1635582,"entry_name":"Starsaber FC","event_total":69,"player_name":"Josey Areza","movement":"down","own_entry":false,"rank":42,"last_rank":37,"rank_sort":42,"total":2458,"entry":332736,"league":313,"start_event":1,"stop_event":38},{"id":2672595,"entry_name":"The Defenders","event_total":53,"player_name":"David Cory","movement":"down","own_entry":false,"rank":43,"last_rank":15,"rank_sort":43,"total":2457,"entry":534293,"league":313,"start_event":1,"stop_event":38},{"id":1211642,"entry_name":"Real Deal","event_total":71,"player_name":"Tony Centofanti","movement":"up","own_entry":false,"rank":44,"last_rank":48,"rank_sort":44,"total":2455,"entry":248741,"league":313,"start_event":1,"stop_event":38},{"id":14899022,"entry_name":"Ayew Lukn @ Mee","event_total":71,"player_name":"shane coffey","movement":"up","own_entry":false,"rank":45,"last_rank":49,"rank_sort":45,"total":2455,"entry":2673647,"league":313,"start_event":1,"stop_event":38},{"id":15949975,"entry_name":"Indian Redz","event_total":83,"player_name":"vignesh chidambaram","movement":"up","own_entry":false,"rank":46,"last_rank":95,"rank_sort":46,"total":2454,"entry":2843647,"league":313,"start_event":1,"stop_event":38},{"id":6627364,"entry_name":"Le Saux Solid Crew","event_total":59,"player_name":"Jacob Finestein","movement":"down","own_entry":false,"rank":47,"last_rank":20,"rank_sort":47,"total":2454,"entry":1260570,"league":313,"start_event":1,"stop_event":38},{"id":1576563,"entry_name":"Gossy's Right Boot","event_total":87,"player_name":"Tom Foster","movement":"up","own_entry":false,"rank":48,"last_rank":84,"rank_sort":48,"total":2453,"entry":322086,"league":313,"start_event":1,"stop_event":38},{"id":86266,"entry_name":"Jesus this is inSané","event_total":58,"player_name":"Filip Lindberg","movement":"down","own_entry":false,"rank":49,"last_rank":27,"rank_sort":49,"total":2453,"entry":17981,"league":313,"start_event":1,"stop_event":38},{"id":9808417,"entry_name":"FC Kukkakeppi","event_total":56,"player_name":"fredrik haglund","movement":"down","own_entry":false,"rank":50,"last_rank":25,"rank_sort":50,"total":2453,"entry":1820944,"league":313,"start_event":1,"stop_event":38}]}
