{"new_entries":{"has_next":false,"number":1,"results":[]},"league":{"id":313,"leagueban_set":[],"name":"Overall","short_name":"overall","created":"2017-07-12T09:49:05Z","closed":false,"forum_disabled":false,"make_code_public":false,"rank":null,"size":null,"league_type":"s","_scoring":"c","reprocess_standings":false,"admin_entry":null,"start_event":1},"standings":{"has_next":true,"number":1,"results":[{"id":4511166,"entry_name":"Boom Xhaka Laca","event_total":0,"player_name":"Bharat Dhody","movement":"same","own_entry":false,"rank":1,"last_rank":1,"rank_sort":1,"total":2257,"entry":870749,"league":313,"start_event":1,"stop_event":38},{"id":3142,"entry_name":"Luke Kylewalkers Dad","event_total":0,"player_name":"rizwan chaudhry","movement":"same","own_entry":false,"rank":2,"last_rank":2,"rank_sort":2,"total":2245,"entry":790,"league":313,"start_event":1,"stop_event":38},{"id":6020856,"entry_name":"FCBfan","event_total":0,"player_name":"Michael M","movement":"same","own_entry":false,"rank":3,"last_rank":3,"rank_sort":3,"total":2234,"entry":1150475,"league":313,"start_event":1,"stop_event":38},{"id":3351490,"entry_name":"Marchanto X","event_total":0,"player_name":"Ed Marchant","movement":"same","own_entry":false,"rank":4,"last_rank":4,"rank_sort":4,"total":2232,"entry":660519,"league":313,"start_event":1,"stop_event":38},{"id":17629076,"entry_name":"Inchihardcores","event_total":0,"player_name":"Joe Boyhan","movement":"same","own_entry":false,"rank":5,"last_rank":5,"rank_sort":5,"total":2229,"entry":3107718,"league":313,"start_event":1,"stop_event":38},{"id":361954,"entry_name":"Paggas Boys","event_total":0,"player_name":"kosta pagonis","movement":"same","own_entry":false,"rank":6,"last_rank":6,"rank_sort":6,"total":2227,"entry":76594,"league":313,"start_event":1,"stop_event":38},{"id":9856992,"entry_name":"da bestest","event_total":0,"player_name":"Henri Äär","movement":"same","own_entry":false,"rank":6,"last_rank":6,"rank_sort":7,"total":2227,"entry":1828710,"league":313,"start_event":1,"stop_event":38},{"id":2436446,"entry_name":"Salah Dodger","event_total":0,"player_name":"Chris Newey","movement":"same","own_entry":false,"rank":8,"last_rank":8,"rank_sort":8,"total":2224,"entry":488167,"league":313,"start_event":1,"stop_event":38},{"id":15791713,"entry_name":"Powerpuff Girls","event_total":0,"player_name":"Lejuan Basson","movement":"same","own_entry":false,"rank":9,"last_rank":9,"rank_sort":9,"total":2221,"entry":2817369,"league":313,"start_event":1,"stop_event":38},{"id":6267822,"entry_name":"Zawisza Bydgoszcz","event_total":0,"player_name":"Andrzej Konecki","movement":"same","own_entry":false,"rank":10,"last_rank":10,"rank_sort":10,"total":2221,"entry":1195531,"league":313,"start_event":1,"stop_event":38},{"id":2260000,"entry_name":"My Little Kone","event_total":0,"player_name":"Paul Gee","movement":"same","own_entry":false,"rank":11,"last_rank":11,"rank_sort":11,"total":2220,"entry":453751,"league":313,"start_event":1,"stop_event":38},{"id":24710446,"entry_name":"Jameslll","event_total":0,"player_name":"James lindsay","movement":"same","own_entry":false,"rank":12,"last_rank":12,"rank_sort":12,"total":2219,"entry":3880535,"league":313,"start_event":1,"stop_event":38},{"id":24143010,"entry_name":"Unlackee","event_total":0,"player_name":"Solms Dykman","movement":"same","own_entry":false,"rank":13,"last_rank":13,"rank_sort":13,"total":2218,"entry":3792333,"league":313,"start_event":1,"stop_event":38},{"id":484275,"entry_name":"Yusuf's Team","event_total":0,"player_name":"Yusuf Sheikh","movement":"same","own_entry":false,"rank":14,"last_rank":14,"rank_sort":14,"total":2215,"entry":101046,"league":313,"start_event":1,"stop_event":38},{"id":12466768,"entry_name":"Sunyata","event_total":0,"player_name":"Ka Vee Yong","movement":"same","own_entry":false,"rank":15,"last_rank":15,"rank_sort":15,"total":2214,"entry":2275971,"league":313,"start_event":1,"stop_event":38},{"id":12124119,"entry_name":"Don Dam","event_total":0,"player_name":"Morten Dam Vestergaard","movement":"same","own_entry":false,"rank":16,"last_rank":16,"rank_sort":16,"total":2213,"entry":2220418,"league":313,"start_event":1,"stop_event":38},{"id":1635582,"entry_name":"Starsaber FC","event_total":0,"player_name":"Josey Areza","movement":"same","own_entry":false,"rank":17,"last_rank":17,"rank_sort":17,"total":2213,"entry":332736,"league":313,"start_event":1,"stop_event":38},{"id":5121767,"entry_name":"YNWA","event_total":0,"player_name":"John Brown","movement":"same","own_entry":false,"rank":18,"last_rank":18,"rank_sort":18,"total":2210,"entry":986158,"league":313,"start_event":1,"stop_event":38},{"id":4388646,"entry_name":"The Money Team","event_total":0,"player_name":"Fabio Capello","movement":"same","own_entry":false,"rank":19,"last_rank":19,"rank_sort":19,"total":2208,"entry":849912,"league":313,"start_event":1,"stop_event":38},{"id":79866,"entry_name":"Stane tigers","event_total":0,"player_name":"Vedran Stanić","movement":"same","own_entry":false,"rank":20,"last_rank":20,"rank_sort":20,"total":2207,"entry":16684,"league":313,"start_event":1,"stop_event":38},{"id":2672595,"entry_name":"The Defenders","event_total":0,"player_name":"David Cory","movement":"same","own_entry":false,"rank":21,"last_rank":21,"rank_sort":21,"total":2205,"entry":534293,"league":313,"start_event":1,"stop_event":38},{"id":1465817,"entry_name":"Giga team","event_total":0,"player_name":"Primož Sevšek","movement":"same","own_entry":false,"rank":22,"last_rank":22,"rank_sort":22,"total":2204,"entry":299783,"league":313,"start_event":1,"stop_event":38},{"id":72473,"entry_name":"Tikka Mo Salah","event_total":0,"player_name":"David Jack","movement":"same","own_entry":false,"rank":23,"last_rank":23,"rank_sort":23,"total":2204,"entry":15140,"league":313,"start_event":1,"stop_event":38},{"id":2026222,"entry_name":"ziad fc","event_total":0,"player_name":"ziad ahmed","movement":"same","own_entry":false,"rank":24,"last_rank":24,"rank_sort":24,"total":2202,"entry":407898,"league":313,"start_event":1,"stop_event":38},{"id":22874439,"entry_name":"Total football 7","event_total":0,"player_name":"Joe Sanders","movement":"same","own_entry":false,"rank":25,"last_rank":25,"rank_sort":25,"total":2202,"entry":3670258,"league":313,"start_event":1,"stop_event":38},{"id":3324978,"entry_name":"a indigo trazis","event_total":0,"player_name":"aleksandar rogic","movement":"same","own_entry":false,"rank":26,"last_rank":26,"rank_sort":26,"total":2202,"entry":655551,"league":313,"start_event":1,"stop_event":38},{"id":1567432,"entry_name":"Team Name","event_total":0,"player_name":"Jamal Rice","movement":"same","own_entry":false,"rank":27,"last_rank":27,"rank_sort":27,"total":2202,"entry":320240,"league":313,"start_event":1,"stop_event":38},{"id":10909629,"entry_name":"Spoons","event_total":0,"player_name":"Andy J Daly","movement":"same","own_entry":false,"rank":28,"last_rank":28,"rank_sort":28,"total":2202,"entry":2006685,"league":313,"start_event":1,"stop_event":38},{"id":1045225,"entry_name":"Renegades","event_total":0,"player_name":"Rahul Sreekumar","movement":"same","own_entry":false,"rank":29,"last_rank":29,"rank_sort":29,"total":2202,"entry":215773,"league":313,"start_event":1,"stop_event":38},{"id":136003,"entry_name":"Starlet","event_total":0,"player_name":"Faisal Idris","movement":"same","own_entry":false,"rank":30,"last_rank":30,"rank_sort":30,"total":2202,"entry":28492,"league":313,"start_event":1,"stop_event":38},{"id":1596272,"entry_name":"Salubrious Sauce Co","event_total":0,"player_name":"Jim Fennell","movement":"same","own_entry":false,"rank":31,"last_rank":31,"rank_sort":31,"total":2200,"entry":324812,"league":313,"start_event":1,"stop_event":38},{"id":1155098,"entry_name":"Crazy coutinho","event_total":0,"player_name":"Prakhar Patel","movement":"same","own_entry":false,"rank":32,"last_rank":32,"rank_sort":32,"total":2199,"entry":237524,"league":313,"start_event":1,"stop_event":38},{"id":3542027,"entry_name":"Top Of Jimmer Booty","event_total":0,"player_name":"Ashley White","movement":"same","own_entry":false,"rank":33,"last_rank":33,"rank_sort":33,"total":2197,"entry":696164,"league":313,"start_event":1,"stop_event":38},{"id":8678151,"entry_name":"Fazio0","event_total":0,"player_name":"Fawaz AlFouzan","movement":"same","own_entry":false,"rank":34,"last_rank":34,"rank_sort":34,"total":2196,"entry":1624115,"league":313,"start_event":1,"stop_event":38},{"id":7930807,"entry_name":"Janotelli","event_total":0,"player_name":"Jan Nel","movement":"same","own_entry":false,"rank":35,"last_rank":35,"rank_sort":35,"total":2196,"entry":1493737,"league":313,"start_event":1,"stop_event":38},{"id":143328,"entry_name":"Repeal Madrid","event_total":0,"player_name":"Kevin Fahy","movement":"same","own_entry":false,"rank":36,"last_rank":36,"rank_sort":36,"total":2196,"entry":30054,"league":313,"start_event":1,"stop_event":38},{"id":11357517,"entry_name":"FC MARADONA","event_total":0,"player_name":"Nebojsa Veljkovic","movement":"same","own_entry":false,"rank":37,"last_rank":37,"rank_sort":37,"total":2195,"entry":2085206,"league":313,"start_event":1,"stop_event":38},{"id":2067705,"entry_name":"Lord Woodward","event_total":0,"player_name":"Gøran Birkeland","movement":"same","own_entry":false,"rank":38,"last_rank":38,"rank_sort":38,"total":2195,"entry":415904,"league":313,"start_event":1,"stop_event":38},{"id":10597092,"entry_name":"smartypants","event_total":0,"player_name":"Jonathan Lee","movement":"same","own_entry":false,"rank":39,"last_rank":39,"rank_sort":39,"total":2194,"entry":1951854,"league":313,"start_event":1,"stop_event":38},{"id":14516117,"entry_name":"Random-132","event_total":0,"player_name":"Jacob Graham","movement":"same","own_entry":false,"rank":40,"last_rank":40,"rank_sort":40,"total":2194,"entry":2612712,"league":313,"start_event":1,"stop_event":38},{"id":15391422,"entry_name":"Boba Fett","event_total":0,"player_name":"Andreas Johansson","movement":"same","own_entry":false,"rank":41,"last_rank":41,"rank_sort":41,"total":2193,"entry":2753054,"league":313,"start_event":1,"stop_event":38},{"id":12983201,"entry_name":"jedandvatri","event_total":0,"player_name":"Uros Ninkovic","movement":"same","own_entry":false,"rank":42,"last_rank":42,"rank_sort":42,"total":2193,"entry":2360645,"league":313,"start_event":1,"stop_event":38},{"id":1789340,"entry_name":"87 memories","event_total":0,"player_name":"jez roberts","movement":"same","own_entry":false,"rank":43,"last_rank":43,"rank_sort":43,"total":2193,"entry":362763,"league":313,"start_event":1,"stop_event":38},{"id":1211642,"entry_name":"Real Deal","event_total":0,"player_name":"Tony Centofanti","movement":"same","own_entry":false,"rank":44,"last_rank":44,"rank_sort":44,"total":2192,"entry":248741,"league":313,"start_event":1,"stop_event":38},{"id":6451265,"entry_name":"Pangolin Lib Front","event_total":0,"player_name":"steve etheridge","movement":"same","own_entry":false,"rank":45,"last_rank":45,"rank_sort":45,"total":2192,"entry":1229212,"league":313,"start_event":1,"stop_event":38},{"id":86266,"entry_name":"Jesus this is inSané","event_total":0,"player_name":"Filip Lindberg","movement":"same","own_entry":false,"rank":46,"last_rank":46,"rank_sort":46,"total":2192,"entry":17981,"league":313,"start_event":1,"stop_event":38},{"id":9808417,"entry_name":"FC Kukkakeppi","event_total":0,"player_name":"fredrik haglund","movement":"same","own_entry":false,"rank":47,"last_rank":47,"rank_sort":47,"total":2192,"entry":1820944,"league":313,"start_event":1,"stop_event":38},{"id":15949975,"entry_name":"Indian Redz","event_total":0,"player_name":"vignesh chidambaram","movement":"same","own_entry":false,"rank":48,"last_rank":48,"rank_sort":48,"total":2191,"entry":2843647,"league":313,"start_event":1,"stop_event":38},{"id":5945539,"entry_name":"Sacar Beo","event_total":0,"player_name":"Andrew Butler","movement":"same","own_entry":false,"rank":49,"last_rank":49,"rank_sort":49,"total":2191,"entry":1136689,"league":313,"start_event":1,"stop_event":38},{"id":213809,"entry_name":"One Ping Only","event_total":0,"player_name":"Peter Mobbs","movement":"same","own_entry":false,"rank":50,"last_rank":50,"rank_sort":50,"total":2191,"entry":45151,"league":313,"start_event":1,"stop_event":38}]},"update_status":0}
