{"new_entries":{"has_next":false,"number":1,"results":[]},"league":{"id":313,"leagueban_set":[],"name":"Overall","short_name":"overall","created":"2017-07-12T09:49:05Z","closed":false,"forum_disabled":false,"make_code_public":false,"rank":null,"size":null,"league_type":"s","_scoring":"c","reprocess_standings":false,"admin_entry":null,"start_event":1},"standings":{"has_next":true,"number":1,"results":[{"id":4511166,"entry_name":"Boom Xhaka Laca","event_total":72,"player_name":"Bharat Dhody","movement":"same","own_entry":false,"rank":1,"last_rank":1,"rank_sort":1,"total":2146,"entry":870749,"league":313,"start_event":1,"stop_event":38},{"id":3142,"entry_name":"Luke Kylewalkers Dad","event_total":64,"player_name":"rizwan chaudhry","movement":"up","own_entry":false,"rank":2,"last_rank":3,"rank_sort":2,"total":2116,"entry":790,"league":313,"start_event":1,"stop_event":38},{"id":484275,"entry_name":"Yusuf's Team","event_total":58,"player_name":"Yusuf Sheikh","movement":"down","own_entry":false,"rank":3,"last_rank":2,"rank_sort":3,"total":2114,"entry":101046,"league":313,"start_event":1,"stop_event":38},{"id":17629076,"entry_name":"Inchihardcores","event_total":83,"player_name":"Joe Boyhan","movement":"up","own_entry":false,"rank":4,"last_rank":14,"rank_sort":4,"total":2111,"entry":3107718,"league":313,"start_event":1,"stop_event":38},{"id":15791713,"entry_name":"Powerpuff Girls","event_total":64,"player_name":"Lejuan Basson","movement":"down","own_entry":false,"rank":5,"last_rank":4,"rank_sort":5,"total":2110,"entry":2817369,"league":313,"start_event":1,"stop_event":38},{"id":24143010,"entry_name":"Unlackee","event_total":67,"player_name":"Solms Dykman","movement":"up","own_entry":false,"rank":6,"last_rank":7,"rank_sort":6,"total":2108,"entry":3792333,"league":313,"start_event":1,"stop_event":38},{"id":1567432,"entry_name":"Team Name","event_total":73,"player_name":"Jamal Rice","movement":"up","own_entry":false,"rank":7,"last_rank":11,"rank_sort":7,"total":2107,"entry":320240,"league":313,"start_event":1,"stop_event":38},{"id":9856992,"entry_name":"da bestest","event_total":63,"player_name":"Henri Äär","movement":"down","own_entry":false,"rank":8,"last_rank":6,"rank_sort":8,"total":2105,"entry":1828710,"league":313,"start_event":1,"stop_event":38},{"id":3351490,"entry_name":"Marchanto X","event_total":83,"player_name":"Ed Marchant","movement":"up","own_entry":false,"rank":9,"last_rank":21,"rank_sort":9,"total":2099,"entry":660519,"league":313,"start_event":1,"stop_event":38},{"id":12124119,"entry_name":"Don Dam","event_total":56,"player_name":"Morten Dam Vestergaard","movement":"down","own_entry":false,"rank":10,"last_rank":8,"rank_sort":10,"total":2095,"entry":2220418,"league":313,"start_event":1,"stop_event":38},{"id":2436446,"entry_name":"Salah Dodger","event_total":53,"player_name":"Chris Newey","movement":"down","own_entry":false,"rank":11,"last_rank":5,"rank_sort":11,"total":2094,"entry":488167,"league":313,"start_event":1,"stop_event":38},{"id":2260000,"entry_name":"My Little Kone","event_total":57,"player_name":"Paul Gee","movement":"down","own_entry":false,"rank":12,"last_rank":10,"rank_sort":12,"total":2093,"entry":453751,"league":313,"start_event":1,"stop_event":38},{"id":24710446,"entry_name":"Jameslll","event_total":56,"player_name":"James lindsay","movement":"down","own_entry":false,"rank":13,"last_rank":9,"rank_sort":13,"total":2092,"entry":3880535,"league":313,"start_event":1,"stop_event":38},{"id":1596272,"entry_name":"Salubrious Sauce Co","event_total":70,"player_name":"Jim Fennell","movement":"up","own_entry":false,"rank":14,"last_rank":19,"rank_sort":14,"total":2086,"entry":324812,"league":313,"start_event":1,"stop_event":38},{"id":7833,"entry_name":"Team Carp","event_total":55,"player_name":"Matt Kearney","movement":"down","own_entry":false,"rank":15,"last_rank":12,"rank_sort":15,"total":2086,"entry":1767,"league":313,"start_event":1,"stop_event":38},{"id":1635582,"entry_name":"Starsaber FC","event_total":68,"player_name":"Josey Areza","movement":"up","own_entry":false,"rank":15,"last_rank":26,"rank_sort":16,"total":2086,"entry":332736,"league":313,"start_event":1,"stop_event":38},{"id":11357517,"entry_name":"FC MARADONA","event_total":77,"player_name":"Nebojsa Veljkovic","movement":"up","own_entry":false,"rank":17,"last_rank":44,"rank_sort":17,"total":2084,"entry":2085206,"league":313,"start_event":1,"stop_event":38},{"id":79866,"entry_name":"Stane tigers","event_total":59,"player_name":"Vedran Stanić","movement":"down","own_entry":false,"rank":18,"last_rank":16,"rank_sort":18,"total":2083,"entry":16684,"league":313,"start_event":1,"stop_event":38},{"id":3324978,"entry_name":"a indigo trazis","event_total":65,"player_name":"aleksandar rogic","movement":"up","own_entry":false,"rank":19,"last_rank":24,"rank_sort":19,"total":2083,"entry":655551,"league":313,"start_event":1,"stop_event":38},{"id":4388646,"entry_name":"The Money Team","event_total":74,"player_name":"Fabio Capello","movement":"up","own_entry":false,"rank":20,"last_rank":31,"rank_sort":20,"total":2083,"entry":849912,"league":313,"start_event":1,"stop_event":38},{"id":6020856,"entry_name":"FCBfan","event_total":77,"player_name":"Michael M","movement":"up","own_entry":false,"rank":21,"last_rank":41,"rank_sort":21,"total":2082,"entry":1150475,"league":313,"start_event":1,"stop_event":38},{"id":22874439,"entry_name":"Total football 7","event_total":61,"player_name":"Joe Sanders","movement":"down","own_entry":false,"rank":22,"last_rank":18,"rank_sort":22,"total":2081,"entry":3670258,"league":313,"start_event":1,"stop_event":38},{"id":3542027,"entry_name":"Top Of Jimmer Booty","event_total":74,"player_name":"Ashley White","movement":"up","own_entry":false,"rank":23,"last_rank":43,"rank_sort":23,"total":2081,"entry":696164,"league":313,"start_event":1,"stop_event":38},{"id":5785549,"entry_name":"LacaXhaka Boom","event_total":66,"player_name":"Gregg Burrows","movement":"up","own_entry":false,"rank":24,"last_rank":32,"rank_sort":24,"total":2078,"entry":1106737,"league":313,"start_event":1,"stop_event":38},{"id":9303034,"entry_name":"4 Fuchs Ake","event_total":82,"player_name":"Christopher Cawood","movement":"up","own_entry":false,"rank":25,"last_rank":75,"rank_sort":25,"total":2078,"entry":1732983,"league":313,"start_event":1,"stop_event":38},{"id":1465817,"entry_name":"Giga team","event_total":72,"player_name":"Primož Sevšek","movement":"up","own_entry":false,"rank":26,"last_rank":40,"rank_sort":26,"total":2077,"entry":299783,"league":313,"start_event":1,"stop_event":38},{"id":10597092,"entry_name":"smartypants","event_total":70,"player_name":"Jonathan Lee","movement":"up","own_entry":false,"rank":27,"last_rank":47,"rank_sort":27,"total":2076,"entry":1951854,"league":313,"start_event":1,"stop_event":38},{"id":9994,"entry_name":"Lallana Land ®","event_total":58,"player_name":"Damir Te Nay","movement":"down","own_entry":false,"rank":28,"last_rank":17,"rank_sort":28,"total":2075,"entry":2241,"league":313,"start_event":1,"stop_event":38},{"id":17857161,"entry_name":"United Eleven","event_total":50,"player_name":"Iryna Matiychyk","movement":"down","own_entry":false,"rank":29,"last_rank":13,"rank_sort":29,"total":2075,"entry":3144479,"league":313,"start_event":1,"stop_event":38},{"id":17745093,"entry_name":"DarrenBentMyFork","event_total":71,"player_name":"Jubaer Ahmed","movement":"up","own_entry":false,"rank":30,"last_rank":55,"rank_sort":30,"total":2075,"entry":3126311,"league":313,"start_event":1,"stop_event":38},{"id":2026222,"entry_name":"ziad fc","event_total":58,"player_name":"ziad ahmed","movement":"down","own_entry":false,"rank":31,"last_rank":27,"rank_sort":31,"total":2074,"entry":407898,"league":313,"start_event":1,"stop_event":38},{"id":18380871,"entry_name":"Viva la Vidal","event_total":80,"player_name":"Ethan Smyth","movement":"up","own_entry":false,"rank":32,"last_rank":67,"rank_sort":32,"total":2074,"entry":3230043,"league":313,"start_event":1,"stop_event":38},{"id":361954,"entry_name":"Paggas Boys","event_total":59,"player_name":"kosta pagonis","movement":"down","own_entry":false,"rank":33,"last_rank":28,"rank_sort":33,"total":2074,"entry":76594,"league":313,"start_event":1,"stop_event":38},{"id":11548558,"entry_name":"Joey Zasa","event_total":60,"player_name":"Joe McFadden","movement":"down","own_entry":false,"rank":33,"last_rank":29,"rank_sort":34,"total":2074,"entry":2118340,"league":313,"start_event":1,"stop_event":38},{"id":14516117,"entry_name":"Random-132","event_total":56,"player_name":"Jacob Graham","movement":"down","own_entry":false,"rank":33,"last_rank":24,"rank_sort":35,"total":2074,"entry":2612712,"league":313,"start_event":1,"stop_event":38},{"id":8254288,"entry_name":"CraigGardnerFanClub","event_total":83,"player_name":"Christian Naylor","movement":"up","own_entry":false,"rank":36,"last_rank":83,"rank_sort":36,"total":2073,"entry":1550524,"league":313,"start_event":1,"stop_event":38},{"id":1045225,"entry_name":"Renegades","event_total":72,"player_name":"Rahul Sreekumar","movement":"up","own_entry":false,"rank":37,"last_rank":64,"rank_sort":37,"total":2073,"entry":215773,"league":313,"start_event":1,"stop_event":38},{"id":213809,"entry_name":"One Ping Only","event_total":79,"player_name":"Peter Mobbs","movement":"up","own_entry":false,"rank":38,"last_rank":86,"rank_sort":38,"total":2072,"entry":45151,"league":313,"start_event":1,"stop_event":38},{"id":18407156,"entry_name":"HuttondressedasLahm","event_total":80,"player_name":"Hugh Smyth","movement":"up","own_entry":false,"rank":39,"last_rank":77,"rank_sort":39,"total":2072,"entry":3234285,"league":313,"start_event":1,"stop_event":38},{"id":1215608,"entry_name":"Trezeguet السيل�","event_total":52,"player_name":"Mahmoud Trezeguet","movement":"down","own_entry":false,"rank":40,"last_rank":22,"rank_sort":40,"total":2071,"entry":249535,"league":313,"start_event":1,"stop_event":38},{"id":2672595,"entry_name":"The Defenders","event_total":59,"player_name":"David Cory","movement":"down","own_entry":false,"rank":41,"last_rank":37,"rank_sort":41,"total":2070,"entry":534293,"league":313,"start_event":1,"stop_event":38},{"id":6267822,"entry_name":"Zawisza Bydgoszcz","event_total":68,"player_name":"Andrzej Konecki","movement":"up","own_entry":false,"rank":42,"last_rank":60,"rank_sort":42,"total":2070,"entry":1195531,"league":313,"start_event":1,"stop_event":38},{"id":486821,"entry_name":"Striker!!!","event_total":81,"player_name":"Vinit Mehta","movement":"up","own_entry":false,"rank":43,"last_rank":89,"rank_sort":43,"total":2070,"entry":101591,"league":313,"start_event":1,"stop_event":38},{"id":4975133,"entry_name":"Zehrs 9","event_total":70,"player_name":"Ahmed Zahran","movement":"up","own_entry":false,"rank":44,"last_rank":66,"rank_sort":44,"total":2069,"entry":958803,"league":313,"start_event":1,"stop_event":38},{"id":11787923,"entry_name":"Fratello","event_total":50,"player_name":"Nikola Nedovic","movement":"down","own_entry":false,"rank":45,"last_rank":23,"rank_sort":45,"total":2068,"entry":2160839,"league":313,"start_event":1,"stop_event":38},{"id":9422108,"entry_name":"M.Abdelwahab3","event_total":48,"player_name":"mido mahmoud","movement":"down","own_entry":false,"rank":46,"last_rank":20,"rank_sort":46,"total":2068,"entry":1754725,"league":313,"start_event":1,"stop_event":38},{"id":10528632,"entry_name":"Rosenberg Royals","event_total":61,"player_name":"Matthew Rosenberg","movement":"down","own_entry":false,"rank":47,"last_rank":46,"rank_sort":47,"total":2067,"entry":1939780,"league":313,"start_event":1,"stop_event":38},{"id":345304,"entry_name":"Royal Arsenal","event_total":55,"player_name":"Gregor Marko Frim","movement":"down","own_entry":false,"rank":48,"last_rank":33,"rank_sort":48,"total":2067,"entry":73205,"league":313,"start_event":1,"stop_event":38},{"id":598887,"entry_name":"DanteKanteConte","event_total":69,"player_name":"Danyel Drinks Water","movement":"up","own_entry":false,"rank":49,"last_rank":70,"rank_sort":49,"total":2067,"entry":124868,"league":313,"start_event":1,"stop_event":38},{"id":642343,"entry_name":"Tupp og ræk IL","event_total":60,"player_name":"Marius Evensen","movement":"down","own_entry":false,"rank":50,"last_rank":45,"rank_sort":50,"total":2066,"entry":133899,"league":313,"start_event":1,"stop_event":38}]},"update_status":0}
