{"new_entries":{"has_next":false,"number":1,"results":[]},"league":{"id":313,"leagueban_set":[],"name":"Overall","short_name":"overall","created":"2017-07-12T09:49:05Z","closed":false,"forum_disabled":false,"make_code_public":false,"rank":null,"size":null,"league_type":"s","_scoring":"c","reprocess_standings":false,"admin_entry":null,"start_event":1},"standings":{"has_next":true,"number":1,"results":[{"id":4511166,"entry_name":"Boom Xhaka Laca","event_total":39,"player_name":"Bharat Dhody","movement":"same","own_entry":false,"rank":1,"last_rank":1,"rank_sort":1,"total":2364,"entry":870749,"league":313,"start_event":1,"stop_event":38},{"id":3142,"entry_name":"Luke Kylewalkers Dad","event_total":52,"player_name":"rizwan chaudhry","movement":"same","own_entry":false,"rank":2,"last_rank":2,"rank_sort":2,"total":2359,"entry":790,"league":313,"start_event":1,"stop_event":38},{"id":2260000,"entry_name":"My Little Kone","event_total":60,"player_name":"Paul Gee","movement":"up","own_entry":false,"rank":3,"last_rank":8,"rank_sort":3,"total":2344,"entry":453751,"league":313,"start_event":1,"stop_event":38},{"id":6020856,"entry_name":"FCBfan","event_total":59,"player_name":"Michael M","movement":"up","own_entry":false,"rank":4,"last_rank":11,"rank_sort":4,"total":2344,"entry":1150475,"league":313,"start_event":1,"stop_event":38},{"id":361954,"entry_name":"Paggas Boys","event_total":44,"player_name":"kosta pagonis","movement":"same","own_entry":false,"rank":5,"last_rank":5,"rank_sort":5,"total":2338,"entry":76594,"league":313,"start_event":1,"stop_event":38},{"id":12124119,"entry_name":"Don Dam","event_total":41,"player_name":"Morten Dam Vestergaard","movement":"down","own_entry":false,"rank":6,"last_rank":3,"rank_sort":6,"total":2338,"entry":2220418,"league":313,"start_event":1,"stop_event":38},{"id":6627364,"entry_name":"Le Saux Solid Crew","event_total":90,"player_name":"Jacob Finestein","movement":"up","own_entry":false,"rank":7,"last_rank":56,"rank_sort":7,"total":2338,"entry":1260570,"league":313,"start_event":1,"stop_event":38},{"id":2436446,"entry_name":"Salah Dodger","event_total":59,"player_name":"Chris Newey","movement":"up","own_entry":false,"rank":8,"last_rank":15,"rank_sort":8,"total":2338,"entry":488167,"league":313,"start_event":1,"stop_event":38},{"id":484275,"entry_name":"Yusuf's Team","event_total":56,"player_name":"Yusuf Sheikh","movement":"up","own_entry":false,"rank":9,"last_rank":12,"rank_sort":9,"total":2336,"entry":101046,"league":313,"start_event":1,"stop_event":38},{"id":9856992,"entry_name":"da bestest","event_total":47,"player_name":"Henri Äär","movement":"down","own_entry":false,"rank":10,"last_rank":7,"rank_sort":10,"total":2335,"entry":1828710,"league":313,"start_event":1,"stop_event":38},{"id":15791713,"entry_name":"Powerpuff Girls","event_total":41,"player_name":"Lejuan Basson","movement":"down","own_entry":false,"rank":11,"last_rank":6,"rank_sort":11,"total":2334,"entry":2817369,"league":313,"start_event":1,"stop_event":38},{"id":136003,"entry_name":"Starlet","event_total":49,"player_name":"Faisal Idris","movement":"up","own_entry":false,"rank":12,"last_rank":13,"rank_sort":12,"total":2329,"entry":28492,"league":313,"start_event":1,"stop_event":38},{"id":1635582,"entry_name":"Starsaber FC","event_total":64,"player_name":"Josey Areza","movement":"up","own_entry":false,"rank":13,"last_rank":20,"rank_sort":13,"total":2328,"entry":332736,"league":313,"start_event":1,"stop_event":38},{"id":6267822,"entry_name":"Zawisza Bydgoszcz","event_total":30,"player_name":"Andrzej Konecki","movement":"down","own_entry":false,"rank":14,"last_rank":4,"rank_sort":14,"total":2326,"entry":1195531,"league":313,"start_event":1,"stop_event":38},{"id":4250945,"entry_name":"Cotton Rangers","event_total":89,"player_name":"Lassi Rikkonen","movement":"up","own_entry":false,"rank":15,"last_rank":79,"rank_sort":15,"total":2326,"entry":824430,"league":313,"start_event":1,"stop_event":38},{"id":3324978,"entry_name":"a indigo trazis","event_total":47,"player_name":"aleksandar rogic","movement":"down","own_entry":false,"rank":16,"last_rank":14,"rank_sort":16,"total":2322,"entry":655551,"league":313,"start_event":1,"stop_event":38},{"id":12466768,"entry_name":"Sunyata","event_total":39,"player_name":"Ka Vee Yong","movement":"down","own_entry":false,"rank":17,"last_rank":9,"rank_sort":17,"total":2322,"entry":2275971,"league":313,"start_event":1,"stop_event":38},{"id":2672595,"entry_name":"The Defenders","event_total":51,"player_name":"David Cory","movement":"down","own_entry":false,"rank":18,"last_rank":17,"rank_sort":18,"total":2320,"entry":534293,"league":313,"start_event":1,"stop_event":38},{"id":24143010,"entry_name":"Unlackee","event_total":33,"player_name":"Solms Dykman","movement":"down","own_entry":false,"rank":19,"last_rank":10,"rank_sort":19,"total":2319,"entry":3792333,"league":313,"start_event":1,"stop_event":38},{"id":24710446,"entry_name":"Jameslll","event_total":62,"player_name":"James lindsay","movement":"up","own_entry":false,"rank":20,"last_rank":31,"rank_sort":20,"total":2319,"entry":3880535,"league":313,"start_event":1,"stop_event":38},{"id":12983201,"entry_name":"jedandvatri","event_total":77,"player_name":"Uros Ninkovic","movement":"up","own_entry":false,"rank":21,"last_rank":61,"rank_sort":21,"total":2319,"entry":2360645,"league":313,"start_event":1,"stop_event":38},{"id":9808417,"entry_name":"FC Kukkakeppi","event_total":42,"player_name":"fredrik haglund","movement":"down","own_entry":false,"rank":22,"last_rank":16,"rank_sort":22,"total":2315,"entry":1820944,"league":313,"start_event":1,"stop_event":38},{"id":143328,"entry_name":"Repeal Madrid","event_total":61,"player_name":"Kevin Fahy","movement":"up","own_entry":false,"rank":23,"last_rank":42,"rank_sort":23,"total":2314,"entry":30054,"league":313,"start_event":1,"stop_event":38},{"id":8678151,"entry_name":"Fazio0","event_total":64,"player_name":"Fawaz AlFouzan","movement":"up","own_entry":false,"rank":24,"last_rank":41,"rank_sort":24,"total":2313,"entry":1624115,"league":313,"start_event":1,"stop_event":38},{"id":1155098,"entry_name":"Crazy coutinho","event_total":50,"player_name":"Prakhar Patel","movement":"down","own_entry":false,"rank":25,"last_rank":22,"rank_sort":25,"total":2312,"entry":237524,"league":313,"start_event":1,"stop_event":38},{"id":14516117,"entry_name":"Random-132","event_total":47,"player_name":"Jacob Graham","movement":"down","own_entry":false,"rank":26,"last_rank":19,"rank_sort":26,"total":2312,"entry":2612712,"league":313,"start_event":1,"stop_event":38},{"id":2067705,"entry_name":"Lord Woodward","event_total":59,"player_name":"Gøran Birkeland","movement":"down","own_entry":false,"rank":27,"last_rank":25,"rank_sort":27,"total":2311,"entry":415904,"league":313,"start_event":1,"stop_event":38},{"id":1391545,"entry_name":"brusdal bonebreakers","event_total":56,"player_name":"Peter Brusdal","movement":"up","own_entry":false,"rank":28,"last_rank":40,"rank_sort":28,"total":2310,"entry":284898,"league":313,"start_event":1,"stop_event":38},{"id":4691926,"entry_name":"Jolly Jesters","event_total":52,"player_name":"Jacob Linacre","movement":"down","own_entry":false,"rank":29,"last_rank":24,"rank_sort":29,"total":2309,"entry":904912,"league":313,"start_event":1,"stop_event":38},{"id":17629076,"entry_name":"Inchihardcores","event_total":61,"player_name":"Joe Boyhan","movement":"up","own_entry":false,"rank":30,"last_rank":47,"rank_sort":30,"total":2308,"entry":3107718,"league":313,"start_event":1,"stop_event":38},{"id":541828,"entry_name":"FPL Glory","event_total":54,"player_name":"Mohammad Ebnul Karim Khan","movement":"down","own_entry":false,"rank":31,"last_rank":28,"rank_sort":31,"total":2308,"entry":113131,"league":313,"start_event":1,"stop_event":38},{"id":1045225,"entry_name":"Renegades","event_total":45,"player_name":"Rahul Sreekumar","movement":"down","own_entry":false,"rank":32,"last_rank":21,"rank_sort":32,"total":2308,"entry":215773,"league":313,"start_event":1,"stop_event":38},{"id":14899022,"entry_name":"Ayew Lukn @ Mee","event_total":54,"player_name":"shane coffey","movement":"down","own_entry":false,"rank":33,"last_rank":30,"rank_sort":33,"total":2307,"entry":2673647,"league":313,"start_event":1,"stop_event":38},{"id":72473,"entry_name":"Tikka Mo Salah","event_total":43,"player_name":"David Jack","movement":"down","own_entry":false,"rank":34,"last_rank":18,"rank_sort":34,"total":2307,"entry":15140,"league":313,"start_event":1,"stop_event":38},{"id":1567432,"entry_name":"Team Name","event_total":51,"player_name":"Jamal Rice","movement":"down","own_entry":false,"rank":34,"last_rank":26,"rank_sort":35,"total":2307,"entry":320240,"league":313,"start_event":1,"stop_event":38},{"id":1752,"entry_name":"Gangsters Allardyce","event_total":61,"player_name":"David Isaac","movement":"up","own_entry":false,"rank":36,"last_rank":51,"rank_sort":36,"total":2306,"entry":452,"league":313,"start_event":1,"stop_event":38},{"id":6451265,"entry_name":"Pangolin Lib Front","event_total":55,"player_name":"steve etheridge","movement":"down","own_entry":false,"rank":37,"last_rank":36,"rank_sort":37,"total":2306,"entry":1229212,"league":313,"start_event":1,"stop_event":38},{"id":24426076,"entry_name":"StuyvesantHeights FC","event_total":70,"player_name":"Tom Scully","movement":"up","own_entry":false,"rank":38,"last_rank":101,"rank_sort":38,"total":2304,"entry":3835829,"league":313,"start_event":1,"stop_event":38},{"id":11357517,"entry_name":"FC MARADONA","event_total":63,"player_name":"Nebojsa Veljkovic","movement":"up","own_entry":false,"rank":39,"last_rank":80,"rank_sort":39,"total":2304,"entry":2085206,"league":313,"start_event":1,"stop_event":38},{"id":86266,"entry_name":"Jesus this is inSané","event_total":46,"player_name":"Filip Lindberg","movement":"down","own_entry":false,"rank":40,"last_rank":29,"rank_sort":40,"total":2304,"entry":17981,"league":313,"start_event":1,"stop_event":38},{"id":85183,"entry_name":"zlaTAN","event_total":56,"player_name":"Weiliang Tan","movement":"down","own_entry":false,"rank":41,"last_rank":33,"rank_sort":41,"total":2304,"entry":17744,"league":313,"start_event":1,"stop_event":38},{"id":5121767,"entry_name":"YNWA","event_total":52,"player_name":"John Brown","movement":"up","own_entry":false,"rank":42,"last_rank":46,"rank_sort":42,"total":2303,"entry":986158,"league":313,"start_event":1,"stop_event":38},{"id":10909629,"entry_name":"Spoons","event_total":61,"player_name":"Andy J Daly","movement":"up","own_entry":false,"rank":43,"last_rank":77,"rank_sort":43,"total":2303,"entry":2006685,"league":313,"start_event":1,"stop_event":38},{"id":2374804,"entry_name":"Baladewa","event_total":70,"player_name":"Yogi Harsudiono","movement":"up","own_entry":false,"rank":44,"last_rank":116,"rank_sort":44,"total":2302,"entry":476339,"league":313,"start_event":1,"stop_event":38},{"id":1465817,"entry_name":"Giga team","event_total":54,"player_name":"Primož Sevšek","movement":"down","own_entry":false,"rank":45,"last_rank":32,"rank_sort":45,"total":2302,"entry":299783,"league":313,"start_event":1,"stop_event":38},{"id":1317603,"entry_name":"moneyball","event_total":59,"player_name":"Wei Mun Yap","movement":"up","own_entry":false,"rank":46,"last_rank":49,"rank_sort":46,"total":2302,"entry":270170,"league":313,"start_event":1,"stop_event":38},{"id":7046309,"entry_name":"Rajandinho","event_total":46,"player_name":"Rajan Patel","movement":"down","own_entry":false,"rank":47,"last_rank":37,"rank_sort":47,"total":2301,"entry":1335434,"league":313,"start_event":1,"stop_event":38},{"id":5945539,"entry_name":"Sacar Beo","event_total":56,"player_name":"Andrew Butler","movement":"up","own_entry":false,"rank":48,"last_rank":66,"rank_sort":48,"total":2300,"entry":1136689,"league":313,"start_event":1,"stop_event":38},{"id":22874439,"entry_name":"Total football 7","event_total":57,"player_name":"Joe Sanders","movement":"up","own_entry":false,"rank":48,"last_rank":70,"rank_sort":49,"total":2300,"entry":3670258,"league":313,"start_event":1,"stop_event":38},{"id":345304,"entry_name":"Royal Arsenal","event_total":49,"player_name":"Gregor Marko Frim","movement":"down","own_entry":false,"rank":50,"last_rank":34,"rank_sort":50,"total":2300,"entry":73205,"league":313,"start_event":1,"stop_event":38}]},"update_status":0}
