{"new_entries":{"has_next":false,"number":1,"results":[]},"league":{"id":313,"leagueban_set":[],"name":"Overall","short_name":"overall","created":"2017-07-12T09:49:05Z","closed":false,"forum_disabled":false,"make_code_public":false,"rank":null,"size":null,"league_type":"s","_scoring":"c","reprocess_standings":false,"admin_entry":null,"start_event":1},"standings":{"has_next":true,"number":1,"results":[{"id":4511166,"entry_name":"Boom Xhaka Laca","event_total":89,"player_name":"Bharat Dhody","movement":"same","own_entry":false,"rank":1,"last_rank":1,"rank_sort":1,"total":2074,"entry":870749,"league":313,"start_event":1,"stop_event":38},{"id":484275,"entry_name":"Yusuf's Team","event_total":96,"player_name":"Yusuf Sheikh","movement":"same","own_entry":false,"rank":2,"last_rank":2,"rank_sort":2,"total":2060,"entry":101046,"league":313,"start_event":1,"stop_event":38},{"id":3142,"entry_name":"Luke Kylewalkers Dad","event_total":102,"player_name":"rizwan chaudhry","movement":"up","own_entry":false,"rank":3,"last_rank":6,"rank_sort":3,"total":2052,"entry":790,"league":313,"start_event":1,"stop_event":38},{"id":15791713,"entry_name":"Powerpuff Girls","event_total":96,"player_name":"Lejuan Basson","movement":"same","own_entry":false,"rank":4,"last_rank":4,"rank_sort":4,"total":2046,"entry":2817369,"league":313,"start_event":1,"stop_event":38},{"id":2436446,"entry_name":"Salah Dodger","event_total":90,"player_name":"Chris Newey","movement":"down","own_entry":false,"rank":5,"last_rank":3,"rank_sort":5,"total":2045,"entry":488167,"league":313,"start_event":1,"stop_event":38},{"id":9856992,"entry_name":"da bestest","event_total":97,"player_name":"Henri Äär","movement":"up","own_entry":false,"rank":6,"last_rank":10,"rank_sort":6,"total":2042,"entry":1828710,"league":313,"start_event":1,"stop_event":38},{"id":24143010,"entry_name":"Unlackee","event_total":87,"player_name":"Solms Dykman","movement":"down","own_entry":false,"rank":7,"last_rank":5,"rank_sort":7,"total":2041,"entry":3792333,"league":313,"start_event":1,"stop_event":38},{"id":12124119,"entry_name":"Don Dam","event_total":94,"player_name":"Morten Dam Vestergaard","movement":"up","own_entry":false,"rank":8,"last_rank":9,"rank_sort":8,"total":2039,"entry":2220418,"league":313,"start_event":1,"stop_event":38},{"id":24710446,"entry_name":"Jameslll","event_total":107,"player_name":"James lindsay","movement":"up","own_entry":false,"rank":9,"last_rank":18,"rank_sort":9,"total":2036,"entry":3880535,"league":313,"start_event":1,"stop_event":38},{"id":2260000,"entry_name":"My Little Kone","event_total":95,"player_name":"Paul Gee","movement":"up","own_entry":false,"rank":10,"last_rank":11,"rank_sort":10,"total":2036,"entry":453751,"league":313,"start_event":1,"stop_event":38},{"id":1567432,"entry_name":"Team Name","event_total":104,"player_name":"Jamal Rice","movement":"up","own_entry":false,"rank":11,"last_rank":20,"rank_sort":11,"total":2034,"entry":320240,"league":313,"start_event":1,"stop_event":38},{"id":7833,"entry_name":"Team Carp","event_total":90,"player_name":"Matt Kearney","movement":"up","own_entry":false,"rank":12,"last_rank":14,"rank_sort":12,"total":2031,"entry":1767,"league":313,"start_event":1,"stop_event":38},{"id":17857161,"entry_name":"United Eleven","event_total":85,"player_name":"Iryna Matiychyk","movement":"down","own_entry":false,"rank":13,"last_rank":7,"rank_sort":13,"total":2029,"entry":3144479,"league":313,"start_event":1,"stop_event":38},{"id":17629076,"entry_name":"Inchihardcores","event_total":82,"player_name":"Joe Boyhan","movement":"down","own_entry":false,"rank":14,"last_rank":8,"rank_sort":14,"total":2028,"entry":3107718,"league":313,"start_event":1,"stop_event":38},{"id":1336007,"entry_name":"Danger Boys Desom","event_total":112,"player_name":"Ashik Jose","movement":"up","own_entry":false,"rank":15,"last_rank":36,"rank_sort":15,"total":2024,"entry":273834,"league":313,"start_event":1,"stop_event":38},{"id":79866,"entry_name":"Stane tigers","event_total":88,"player_name":"Vedran Stanić","movement":"down","own_entry":false,"rank":16,"last_rank":15,"rank_sort":16,"total":2024,"entry":16684,"league":313,"start_event":1,"stop_event":38},{"id":9994,"entry_name":"Lallana Land ®","event_total":80,"player_name":"Damir Te Nay","movement":"down","own_entry":false,"rank":17,"last_rank":13,"rank_sort":17,"total":2021,"entry":2241,"league":313,"start_event":1,"stop_event":38},{"id":22874439,"entry_name":"Total football 7","event_total":109,"player_name":"Joe Sanders","movement":"up","own_entry":false,"rank":18,"last_rank":39,"rank_sort":18,"total":2020,"entry":3670258,"league":313,"start_event":1,"stop_event":38},{"id":1596272,"entry_name":"Salubrious Sauce Co","event_total":107,"player_name":"Jim Fennell","movement":"up","own_entry":false,"rank":19,"last_rank":35,"rank_sort":19,"total":2020,"entry":324812,"league":313,"start_event":1,"stop_event":38},{"id":9422108,"entry_name":"M.Abdelwahab3","event_total":114,"player_name":"mido mahmoud","movement":"up","own_entry":false,"rank":20,"last_rank":54,"rank_sort":20,"total":2020,"entry":1754725,"league":313,"start_event":1,"stop_event":38},{"id":3351490,"entry_name":"Marchanto X","event_total":110,"player_name":"Ed Marchant","movement":"up","own_entry":false,"rank":21,"last_rank":43,"rank_sort":21,"total":2020,"entry":660519,"league":313,"start_event":1,"stop_event":38},{"id":1215608,"entry_name":"Trezeguet السيل�","event_total":93,"player_name":"Mahmoud Trezeguet","movement":"up","own_entry":false,"rank":22,"last_rank":23,"rank_sort":22,"total":2019,"entry":249535,"league":313,"start_event":1,"stop_event":38},{"id":11787923,"entry_name":"Fratello","event_total":116,"player_name":"Nikola Nedovic","movement":"up","own_entry":false,"rank":23,"last_rank":71,"rank_sort":23,"total":2018,"entry":2160839,"league":313,"start_event":1,"stop_event":38},{"id":3324978,"entry_name":"a indigo trazis","event_total":87,"player_name":"aleksandar rogic","movement":"down","own_entry":false,"rank":24,"last_rank":16,"rank_sort":24,"total":2018,"entry":655551,"league":313,"start_event":1,"stop_event":38},{"id":14516117,"entry_name":"Random-132","event_total":104,"player_name":"Jacob Graham","movement":"up","own_entry":false,"rank":24,"last_rank":32,"rank_sort":25,"total":2018,"entry":2612712,"league":313,"start_event":1,"stop_event":38},{"id":1635582,"entry_name":"Starsaber FC","event_total":111,"player_name":"Josey Areza","movement":"up","own_entry":false,"rank":26,"last_rank":52,"rank_sort":26,"total":2018,"entry":332736,"league":313,"start_event":1,"stop_event":38},{"id":2026222,"entry_name":"ziad fc","event_total":116,"player_name":"ziad ahmed","movement":"up","own_entry":false,"rank":27,"last_rank":81,"rank_sort":27,"total":2016,"entry":407898,"league":313,"start_event":1,"stop_event":38},{"id":361954,"entry_name":"Paggas Boys","event_total":90,"player_name":"kosta pagonis","movement":"down","own_entry":false,"rank":28,"last_rank":21,"rank_sort":28,"total":2015,"entry":76594,"league":313,"start_event":1,"stop_event":38},{"id":11548558,"entry_name":"Joey Zasa","event_total":87,"player_name":"Joe McFadden","movement":"down","own_entry":false,"rank":29,"last_rank":22,"rank_sort":29,"total":2014,"entry":2118340,"league":313,"start_event":1,"stop_event":38},{"id":4945619,"entry_name":"Lovers and Leavers","event_total":82,"player_name":"Jim Caudwell","movement":"down","own_entry":false,"rank":30,"last_rank":19,"rank_sort":30,"total":2013,"entry":953165,"league":313,"start_event":1,"stop_event":38},{"id":4388646,"entry_name":"The Money Team","event_total":113,"player_name":"Fabio Capello","movement":"up","own_entry":false,"rank":31,"last_rank":84,"rank_sort":31,"total":2013,"entry":849912,"league":313,"start_event":1,"stop_event":38},{"id":5785549,"entry_name":"LacaXhaka Boom","event_total":114,"player_name":"Gregg Burrows","movement":"up","own_entry":false,"rank":32,"last_rank":91,"rank_sort":32,"total":2012,"entry":1106737,"league":313,"start_event":1,"stop_event":38},{"id":345304,"entry_name":"Royal Arsenal","event_total":93,"player_name":"Gregor Marko Frim","movement":"down","own_entry":false,"rank":33,"last_rank":30,"rank_sort":33,"total":2012,"entry":73205,"league":313,"start_event":1,"stop_event":38},{"id":319400,"entry_name":"FC Stoporko","event_total":93,"player_name":"Klemen Stoporko","movement":"down","own_entry":false,"rank":34,"last_rank":26,"rank_sort":34,"total":2012,"entry":67644,"league":313,"start_event":1,"stop_event":38},{"id":1962219,"entry_name":"Glasslirarna","event_total":104,"player_name":"Edvard Wiebert","movement":"up","own_entry":false,"rank":35,"last_rank":51,"rank_sort":35,"total":2011,"entry":395662,"league":313,"start_event":1,"stop_event":38},{"id":2650812,"entry_name":"The Holden Horde","event_total":102,"player_name":"Thomas Holden","movement":"up","own_entry":false,"rank":35,"last_rank":46,"rank_sort":36,"total":2011,"entry":530146,"league":313,"start_event":1,"stop_event":38},{"id":2672595,"entry_name":"The Defenders","event_total":96,"player_name":"David Cory","movement":"down","own_entry":false,"rank":37,"last_rank":29,"rank_sort":37,"total":2011,"entry":534293,"league":313,"start_event":1,"stop_event":38},{"id":7290186,"entry_name":"spit's heroes","event_total":106,"player_name":"Wayne spittle","movement":"up","own_entry":false,"rank":38,"last_rank":64,"rank_sort":38,"total":2010,"entry":1378007,"league":313,"start_event":1,"stop_event":38},{"id":9817508,"entry_name":"Will S","event_total":112,"player_name":"Wil Liam","movement":"up","own_entry":false,"rank":39,"last_rank":96,"rank_sort":39,"total":2009,"entry":1822504,"league":313,"start_event":1,"stop_event":38},{"id":1465817,"entry_name":"Giga team","event_total":108,"player_name":"Primož Sevšek","movement":"up","own_entry":false,"rank":40,"last_rank":78,"rank_sort":40,"total":2009,"entry":299783,"league":313,"start_event":1,"stop_event":38},{"id":6020856,"entry_name":"FCBfan","event_total":117,"player_name":"Michael M","movement":"up","own_entry":false,"rank":41,"last_rank":120,"rank_sort":41,"total":2009,"entry":1150475,"league":313,"start_event":1,"stop_event":38},{"id":14025206,"entry_name":"Moves Like Agger","event_total":75,"player_name":"Tom Subak-Sharpe","movement":"down","own_entry":false,"rank":42,"last_rank":17,"rank_sort":42,"total":2008,"entry":2529673,"league":313,"start_event":1,"stop_event":38},{"id":3542027,"entry_name":"Top Of Jimmer Booty","event_total":102,"player_name":"Ashley White","movement":"up","own_entry":false,"rank":43,"last_rank":58,"rank_sort":43,"total":2007,"entry":696164,"league":313,"start_event":1,"stop_event":38},{"id":11357517,"entry_name":"FC MARADONA","event_total":114,"player_name":"Nebojsa Veljkovic","movement":"up","own_entry":false,"rank":44,"last_rank":111,"rank_sort":44,"total":2007,"entry":2085206,"league":313,"start_event":1,"stop_event":38},{"id":642343,"entry_name":"Tupp og ræk IL","event_total":115,"player_name":"Marius Evensen","movement":"up","own_entry":false,"rank":45,"last_rank":122,"rank_sort":45,"total":2006,"entry":133899,"league":313,"start_event":1,"stop_event":38},{"id":10528632,"entry_name":"Rosenberg Royals","event_total":103,"player_name":"Matthew Rosenberg","movement":"up","own_entry":false,"rank":46,"last_rank":68,"rank_sort":46,"total":2006,"entry":1939780,"league":313,"start_event":1,"stop_event":38},{"id":10597092,"entry_name":"smartypants","event_total":94,"player_name":"Jonathan Lee","movement":"down","own_entry":false,"rank":47,"last_rank":37,"rank_sort":47,"total":2006,"entry":1951854,"league":313,"start_event":1,"stop_event":38},{"id":136003,"entry_name":"Starlet","event_total":98,"player_name":"Faisal Idris","movement":"down","own_entry":false,"rank":48,"last_rank":38,"rank_sort":48,"total":2006,"entry":28492,"league":313,"start_event":1,"stop_event":38},{"id":13623158,"entry_name":"Bullied by Tak FC","event_total":106,"player_name":"Neil Jones","movement":"up","own_entry":false,"rank":49,"last_rank":87,"rank_sort":49,"total":2005,"entry":2465937,"league":313,"start_event":1,"stop_event":38},{"id":8538558,"entry_name":"Jarov G's","event_total":102,"player_name":"Samuel Ryckenberg","movement":"up","own_entry":false,"rank":50,"last_rank":69,"rank_sort":50,"total":2005,"entry":1599673,"league":313,"start_event":1,"stop_event":38}]},"update_status":0}
